{
    "value": true,
    "data": {
      "items": [
        {
          "id": 4,
          "product_id": 4,
          "name": "Blackberries",
          "quantity": 10,
          "max_quantity": 0,
          "image": "../src/assets/images/product/product-4.jpg",
          "new_price": 10,
          "total": 100
        },
        {
          "id": 5,
          "product_id": 5,
          "name": "Raspberries",
          "quantity": 15,
          "max_quantity": 15,
          "image": "../src/assets/images/product/product-5.jpg",
          "new_price": 13,
          "total": 195
        }
      ],
      "paginate": {
        "total": 5,
        "count": 2,
        "per_page": 3,
        "next_page_url": "",
        "prev_page_url": "",
        "current_page": 2,
        "total_pages": 2
      }
    },
    "extra": {
      "total_cost": 295
    },
    "code": 200
  }
