{
    "value": true,
    "data": {
      "items": [
        {
          "id": 4,
          "product_id": 4,
          "name": "Blackberries",
          "in_stock": "Out of stock",
          "image": "../src/assets/images/product/product-4.jpg",
          "new_price": 10
        },
        {
          "id": 5,
          "product_id": 5,
          "name": "Raspberries",
          "in_stock": "In stock",
          "image": "../src/assets/images/product/product-5.jpg",
          "new_price": 14
        }
      ],
      "paginate": {
        "total": 5,
        "count": 2,
        "per_page": 3,
        "next_page_url": "",
        "prev_page_url": "",
        "current_page": 2,
        "total_pages": 2
      }
    },
    "code": 200
  }
